{
    "key": "group_5bd08dfa953ce",
    "title": "Sectors",
    "fields": [
        {
            "key": "field_5bd08e3e70449",
            "label": "Statistics",
            "name": "statistics",
            "type": "repeater",
            "instructions": "",
            "required": 0,
            "conditional_logic": 0,
            "wrapper": {
                "width": "",
                "class": "",
                "id": ""
            },
            "collapsed": "field_5bd08e967044a",
            "min": 0,
            "max": 3,
            "layout": "table",
            "button_label": "Add stat",
            "sub_fields": [
                {
                    "key": "field_5bd08e967044a",
                    "label": "Stat",
                    "name": "stat",
                    "type": "clone",
                    "instructions": "",
                    "required": 0,
                    "conditional_logic": 0,
                    "wrapper": {
                        "width": "",
                        "class": "",
                        "id": ""
                    },
                    "clone": [
                        "field_5bc61167f156c",
                        "field_5bc61270f156d",
                        "field_5bc612b9f156e"
                    ],
                    "display": "seamless",
                    "layout": "block",
                    "prefix_label": 0,
                    "prefix_name": 0
                }
            ]
        }
    ],
    "location": [
        [
            {
                "param": "post_type",
                "operator": "==",
                "value": "all-sectors"
            }
        ]
    ],
    "menu_order": 20,
    "position": "acf_after_title",
    "style": "seamless",
    "label_placement": "top",
    "instruction_placement": "label",
    "hide_on_screen": "",
    "active": 1,
    "description": "",
    "modified": 1540470760
}